<?xml version="1.0" encoding="UTF-8" standalone="no"?>
<!-- Created with Inkscape (http://www.inkscape.org/) -->

<svg
   xmlns:dc="http://purl.org/dc/elements/1.1/"
   xmlns:cc="http://creativecommons.org/ns#"
   xmlns:rdf="http://www.w3.org/1999/02/22-rdf-syntax-ns#"
   xmlns:svg="http://www.w3.org/2000/svg"
   xmlns="http://www.w3.org/2000/svg"
   xmlns:sodipodi="http://sodipodi.sourceforge.net/DTD/sodipodi-0.dtd"
   xmlns:inkscape="http://www.inkscape.org/namespaces/inkscape"
   width="16"
   height="16"
   viewBox="0 0 4.2333333 4.2333334"
   version="1.1"
   id="svg8"
   inkscape:export-filename="/home/frankiezafe/forge.godot/fyac/godot/textures/icons/file_h_16x16.png"
   inkscape:export-xdpi="96"
   inkscape:export-ydpi="96"
   inkscape:version="0.92.5 (2060ec1f9f, 2020-04-08)"
   sodipodi:docname="icons.svg">
  <defs
     id="defs2" />
  <sodipodi:namedview
     id="base"
     pagecolor="#ffffff"
     bordercolor="#666666"
     borderopacity="1.0"
     inkscape:pageopacity="0.0"
     inkscape:pageshadow="2"
     inkscape:zoom="22.627416"
     inkscape:cx="8"
     inkscape:cy="6.8622641"
     inkscape:document-units="px"
     inkscape:current-layer="g874"
     showgrid="true"
     units="px"
     inkscape:window-width="1330"
     inkscape:window-height="740"
     inkscape:window-x="36"
     inkscape:window-y="0"
     inkscape:window-maximized="1"
     showguides="false">
    <inkscape:grid
       type="xygrid"
       id="grid884"
       empspacing="4"
       originx="0.52916667"
       originy="0.52916667" />
  </sodipodi:namedview>
  <metadata
     id="metadata5">
    <rdf:RDF>
      <cc:Work
         rdf:about="">
        <dc:format>image/svg+xml</dc:format>
        <dc:type
           rdf:resource="http://purl.org/dc/dcmitype/StillImage" />
        <dc:title />
      </cc:Work>
    </rdf:RDF>
  </metadata>
  <g
     inkscape:groupmode="layer"
     id="layer2"
     inkscape:label="plus"
     style="display:none">
    <path
       style="opacity:1;vector-effect:none;fill:#ffffff;fill-opacity:1;stroke:none;stroke-width:1.00157475;stroke-linecap:square;stroke-linejoin:miter;stroke-miterlimit:4;stroke-dasharray:1.0015748, 3.0047244;stroke-dashoffset:0;stroke-opacity:1"
       d="M 7,2 V 7 H 2 v 2 h 5 v 5 H 9 V 9 h 5 V 7 H 9 V 2 Z"
       transform="scale(0.26458333)"
       id="rect887"
       inkscape:connector-curvature="0" />
  </g>
  <g
     style="display:none"
     inkscape:label="plus_hover"
     id="g948"
     inkscape:groupmode="layer">
    <path
       style="opacity:1;vector-effect:none;fill:#ffffff;fill-opacity:1;stroke:none;stroke-width:1.00157475;stroke-linecap:square;stroke-linejoin:miter;stroke-miterlimit:4;stroke-dasharray:1.0015748, 3.0047244;stroke-dashoffset:0;stroke-opacity:1"
       d="M 0,0 V 16 H 16 V 0 Z m 7,2 h 2 v 5 h 5 V 9 H 9 v 5 H 7 V 9 H 2 V 7 h 5 z"
       transform="scale(0.26458333)"
       id="rect950"
       inkscape:connector-curvature="0" />
  </g>
  <g
     inkscape:label="minus"
     id="g894"
     inkscape:groupmode="layer"
     style="display:none">
    <rect
       style="opacity:1;vector-effect:none;fill:#ffffff;fill-opacity:1;stroke:none;stroke-width:0.26499999;stroke-linecap:square;stroke-linejoin:miter;stroke-miterlimit:4;stroke-dasharray:0.265, 0.79499999;stroke-dashoffset:0;stroke-opacity:1"
       id="rect896"
       width="3.175"
       height="0.52916664"
       x="0.52916664"
       y="1.8520833" />
  </g>
  <g
     style="display:none"
     inkscape:groupmode="layer"
     id="g955"
     inkscape:label="minus_hover">
    <path
       style="opacity:1;vector-effect:none;fill:#ffffff;fill-opacity:1;stroke:none;stroke-width:1.00157475;stroke-linecap:square;stroke-linejoin:miter;stroke-miterlimit:4;stroke-dasharray:1.0015748, 3.00472436;stroke-dashoffset:0;stroke-opacity:1"
       d="M 0,0 V 16 H 16 V 0 Z M 2,7 H 14 V 9 H 2 Z"
       transform="scale(0.26458333)"
       id="rect957"
       inkscape:connector-curvature="0" />
  </g>
  <g
     inkscape:groupmode="layer"
     id="layer3"
     inkscape:label="up"
     style="display:none">
    <path
       style="opacity:1;vector-effect:none;fill:#ffffff;fill-opacity:1;stroke:none;stroke-width:1.00157475;stroke-linecap:square;stroke-linejoin:miter;stroke-miterlimit:4;stroke-dasharray:1.0015748, 3.00472436;stroke-dashoffset:0;stroke-opacity:1"
       d="M 7,4 V 6 H 6 V 8 H 5 v 2 H 4 v 2 H 6 V 10 H 7 V 8 h 1 1 v 2 h 1 v 2 h 2 V 10 H 11 V 8 H 10 V 6 H 9 V 4 Z"
       transform="scale(0.26458333)"
       id="rect905"
       inkscape:connector-curvature="0" />
  </g>
  <g
     style="display:none"
     inkscape:label="up_hover"
     id="g963"
     inkscape:groupmode="layer">
    <path
       style="opacity:1;vector-effect:none;fill:#ffffff;fill-opacity:1;stroke:none;stroke-width:1.00157475;stroke-linecap:square;stroke-linejoin:miter;stroke-miterlimit:4;stroke-dasharray:1.0015748, 3.00472436;stroke-dashoffset:0;stroke-opacity:1"
       d="M 0,0 V 16 H 16 V 0 Z m 7,4 h 2 v 2 h 1 v 2 h 1 v 2 h 1 v 2 H 10 V 10 H 9 V 8 H 8 7 v 2 H 6 v 2 H 4 V 10 H 5 V 8 H 6 V 6 h 1 z"
       transform="scale(0.26458333)"
       id="rect965"
       inkscape:connector-curvature="0" />
  </g>
  <g
     inkscape:label="down"
     id="g936"
     inkscape:groupmode="layer"
     style="display:none">
    <path
       id="path934"
       d="M 2.38125,3.175 V 2.6458333 H 2.6458333 V 2.1166666 H 2.9104166 V 1.5875 H 3.175 V 1.0583333 H 2.6458333 V 1.5875 H 2.38125 V 2.1166666 H 2.1166666 1.8520833 V 1.5875 H 1.5875 V 1.0583333 H 1.0583333 V 1.5875 H 1.3229167 V 2.1166666 H 1.5875 V 2.6458333 H 1.8520833 V 3.175 Z"
       style="opacity:1;vector-effect:none;fill:#ffffff;fill-opacity:1;stroke:none;stroke-width:0.26499999;stroke-linecap:square;stroke-linejoin:miter;stroke-miterlimit:4;stroke-dasharray:0.265, 0.79499998;stroke-dashoffset:0;stroke-opacity:1"
       inkscape:connector-curvature="0" />
  </g>
  <g
     inkscape:groupmode="layer"
     id="layer4"
     inkscape:label="down_hover"
     style="display:none">
    <path
       inkscape:connector-curvature="0"
       style="display:inline;opacity:1;vector-effect:none;fill:#ffffff;fill-opacity:1;stroke:none;stroke-width:0.26499999;stroke-linecap:square;stroke-linejoin:miter;stroke-miterlimit:4;stroke-dasharray:0.265, 0.79499999;stroke-dashoffset:0;stroke-opacity:1"
       d="M 4.2333333,4.2333333 V 0 H 0 V 4.2333333 Z M 2.38125,3.175 H 1.8520833 V 2.6458333 H 1.5875 V 2.1166666 H 1.3229166 V 1.5875 H 1.0583333 V 1.0583333 H 1.5875 V 1.5875 H 1.8520833 V 2.1166666 H 2.1166666 2.38125 V 1.5875 H 2.6458333 V 1.0583333 H 3.175 V 1.5875 H 2.9104166 V 2.1166666 H 2.6458333 V 2.6458333 H 2.38125 Z"
       id="rect965-3" />
  </g>
  <g
     inkscape:groupmode="layer"
     id="g940"
     inkscape:label="right"
     style="display:none">
    <path
       inkscape:connector-curvature="0"
       style="opacity:1;vector-effect:none;fill:#ffffff;fill-opacity:1;stroke:none;stroke-width:0.26499999;stroke-linecap:square;stroke-linejoin:miter;stroke-miterlimit:4;stroke-dasharray:0.265, 0.79499998;stroke-dashoffset:0;stroke-opacity:1"
       d="M 3.175,1.8520833 H 2.6458333 V 1.5875 H 2.1166666 V 1.3229167 H 1.5875 V 1.0583333 H 1.0583333 V 1.5875 H 1.5875 V 1.8520833 H 2.1166666 V 2.1166667 2.38125 H 1.5875 V 2.6458333 H 1.0583333 V 3.175 H 1.5875 V 2.9104166 H 2.1166666 V 2.6458333 H 2.6458333 V 2.38125 H 3.175 Z"
       id="path938" />
  </g>
  <g
     inkscape:groupmode="layer"
     id="layer5"
     inkscape:label="right_hover"
     style="display:none">
    <path
       inkscape:connector-curvature="0"
       style="display:inline;opacity:1;vector-effect:none;fill:#ffffff;fill-opacity:1;stroke:none;stroke-width:0.26499999;stroke-linecap:square;stroke-linejoin:miter;stroke-miterlimit:4;stroke-dasharray:0.265, 0.79499999;stroke-dashoffset:0;stroke-opacity:1"
       d="M 4.2333333,0 H 0 V 4.2333333 H 4.2333333 Z M 3.175,1.8520833 V 2.38125 H 2.6458333 V 2.6458333 H 2.1166666 V 2.9104167 H 1.5875 V 3.175 H 1.0583333 V 2.6458333 H 1.5875 V 2.38125 H 2.1166666 V 2.1166667 1.8520833 H 1.5875 V 1.5875 H 1.0583333 V 1.0583333 H 1.5875 V 1.3229167 H 2.1166666 V 1.5875 h 0.5291667 v 0.2645833 z"
       id="rect965-6" />
  </g>
  <g
     inkscape:label="left"
     id="g944"
     inkscape:groupmode="layer"
     style="display:none">
    <path
       id="path942"
       d="M 1.0583333,2.38125 H 1.5875 V 2.6458333 H 2.1166667 V 2.9104166 H 2.6458333 V 3.175 H 3.175 V 2.6458333 H 2.6458333 V 2.38125 H 2.1166667 V 2.1166666 1.8520833 H 2.6458333 V 1.5875 H 3.175 V 1.0583333 H 2.6458333 V 1.3229167 H 2.1166667 V 1.5875 H 1.5875 V 1.8520833 H 1.0583333 Z"
       style="opacity:1;vector-effect:none;fill:#ffffff;fill-opacity:1;stroke:none;stroke-width:0.26499999;stroke-linecap:square;stroke-linejoin:miter;stroke-miterlimit:4;stroke-dasharray:0.265, 0.79499998;stroke-dashoffset:0;stroke-opacity:1"
       inkscape:connector-curvature="0" />
  </g>
  <g
     inkscape:groupmode="layer"
     id="layer6"
     inkscape:label="left_hover"
     style="display:none">
    <path
       inkscape:connector-curvature="0"
       style="display:inline;opacity:1;vector-effect:none;fill:#ffffff;fill-opacity:1;stroke:none;stroke-width:0.26499999;stroke-linecap:square;stroke-linejoin:miter;stroke-miterlimit:4;stroke-dasharray:0.265, 0.79499999;stroke-dashoffset:0;stroke-opacity:1"
       d="M 0,4.2333333 H 4.2333333 V 0 H 0 Z M 1.0583333,2.38125 V 1.8520833 H 1.5875 V 1.5875 H 2.1166667 V 1.3229166 H 2.6458333 V 1.0583333 H 3.175 V 1.5875 H 2.6458333 V 1.8520833 H 2.1166667 V 2.1166666 2.38125 H 2.6458333 V 2.6458333 H 3.175 V 3.175 H 2.6458333 V 2.9104166 H 2.1166667 V 2.6458333 H 1.5875 V 2.38125 Z"
       id="rect965-7" />
  </g>
  <g
     inkscape:groupmode="layer"
     id="layer7"
     inkscape:label="dot"
     style="display:none">
    <rect
       style="opacity:1;vector-effect:none;fill:#ffffff;fill-opacity:1;stroke:none;stroke-width:0.26499999;stroke-linecap:square;stroke-linejoin:miter;stroke-miterlimit:4;stroke-dasharray:0.265, 0.79499999;stroke-dashoffset:0;stroke-opacity:1"
       id="rect1571"
       width="0.52916664"
       height="0.52916664"
       x="1.8520833"
       y="1.8520833" />
  </g>
  <g
     inkscape:groupmode="layer"
     id="layer8"
     inkscape:label="checked"
     style="display:none">
    <path
       style="display:inline;opacity:1;vector-effect:none;fill:#f9f9f9;fill-opacity:1;stroke:none;stroke-width:1.00157475;stroke-linecap:square;stroke-linejoin:miter;stroke-miterlimit:4;stroke-dasharray:1.0015748, 3.00472432;stroke-dashoffset:0;stroke-opacity:1"
       d="m 3,5 v 2 2 2 H 4 5 6 8 V 9 7 5 H 6 5 Z m 6,0 v 2 2 2 h 2 V 9 7 h 1 v 2 2 h 2 V 9 7 5 H 13 11 Z M 5,7 H 6 V 9 H 5 Z"
       transform="scale(0.26458333)"
       id="rect1571-5"
       inkscape:connector-curvature="0" />
  </g>
  <g
     style="display:none"
     inkscape:label="cross"
     id="g1629"
     inkscape:groupmode="layer">
    <path
       style="opacity:1;vector-effect:none;fill:#ffffff;fill-opacity:1;stroke:none;stroke-width:1.00157475;stroke-linecap:square;stroke-linejoin:miter;stroke-miterlimit:4;stroke-dasharray:1.0015748, 3.00472436;stroke-dashoffset:0;stroke-opacity:1"
       d="M 1,1 V 3 H 3 V 1 Z M 3,3 V 5 H 5 V 3 Z M 5,5 V 7 H 7 V 5 Z M 7,7 V 9 H 9 V 7 Z m 2,0 h 2 V 5 H 9 Z m 2,-2 h 2 V 3 h -2 z m 2,-2 h 2 V 1 H 13 Z M 9,9 v 2 h 2 V 9 Z m 2,2 v 2 h 2 v -2 z m 2,2 v 2 h 2 V 13 Z M 7,9 H 5 v 2 H 7 Z M 5,11 H 3 v 2 H 5 Z M 3,13 H 1 v 2 h 2 z"
       transform="scale(0.26458333)"
       id="rect1627"
       inkscape:connector-curvature="0" />
  </g>
  <g
     inkscape:groupmode="layer"
     id="g1676"
     inkscape:label="cross_hover"
     style="display:none">
    <path
       style="opacity:1;vector-effect:none;fill:#ffffff;fill-opacity:1;stroke:none;stroke-width:1.00157475;stroke-linecap:square;stroke-linejoin:miter;stroke-miterlimit:4;stroke-dasharray:1.0015748, 3.00472436;stroke-dashoffset:0;stroke-opacity:1"
       d="M 0,0 V 16 H 16 V 0 Z M 1,1 H 3 V 3 H 5 V 5 H 7 V 7 H 9 V 5 h 2 V 3 h 2 V 1 h 2 V 3 H 13 V 5 H 11 V 7 H 9 v 2 h 2 v 2 h 2 v 2 h 2 v 2 H 13 V 13 H 11 V 11 H 9 V 9 H 7 v 2 H 5 v 2 H 3 v 2 H 1 V 13 H 3 V 11 H 5 V 9 H 7 V 7 H 5 V 5 H 3 V 3 H 1 Z"
       transform="scale(0.26458333)"
       id="rect1678"
       inkscape:connector-curvature="0" />
  </g>
  <g
     inkscape:groupmode="layer"
     id="layer1"
     inkscape:label="file"
     style="display:none">
    <path
       style="opacity:1;fill:#ffffff;fill-opacity:1;stroke:none;stroke-width:2.45334697;stroke-linecap:round;stroke-linejoin:round;stroke-miterlimit:4;stroke-dasharray:none;stroke-dashoffset:0;stroke-opacity:1"
       d="M 2,2 V 14 H 4 14 V 12 6 H 13 V 5 H 12 V 4 H 11 V 3 H 10 V 2 H 4 Z m 2,2 h 2 v 2 2 2 h 2 2 2 v 2 H 4 Z m 4,0 h 1 v 1 h 1 v 1 h 1 v 1 h 1 V 8 H 10 8 V 6 Z"
       transform="scale(0.26458333)"
       id="rect845"
       inkscape:connector-curvature="0" />
  </g>
  <g
     inkscape:label="file_hover"
     id="g874"
     inkscape:groupmode="layer">
    <path
       style="opacity:1;fill:#ffffff;fill-opacity:1;stroke:none;stroke-width:1.00157475;stroke-linecap:round;stroke-linejoin:round;stroke-miterlimit:4;stroke-dasharray:none;stroke-dashoffset:0;stroke-opacity:1"
       d="M 0 0 L 0 16 L 16 16 L 16 0 L 0 0 z M 2 2 L 4 2 L 10 2 L 10 3 L 11 3 L 11 4 L 12 4 L 12 5 L 13 5 L 13 6 L 14 6 L 14 12 L 14 14 L 4 14 L 2 14 L 2 2 z M 4 4 L 4 12 L 12 12 L 12 10 L 10 10 L 8 10 L 6 10 L 6 8 L 6 6 L 6 4 L 4 4 z M 8 4 L 8 6 L 8 8 L 10 8 L 12 8 L 12 7 L 11 7 L 11 6 L 10 6 L 10 5 L 9 5 L 9 4 L 8 4 z "
       transform="scale(0.26458333)"
       id="rect876" />
  </g>
</svg>
